Features,Description
Wages,Monthly wage
AgeOfSubject,Age of applicant (in months)
Gender,
Insurance,Monthly expense for Insurance
AgeOfFile,Age of Equifax credit file (in months)
NonDiscretionarySpending,
VedaScore,
Groceries,Monthly expense for Groceries
NonSaccLoans,Sum of the loan amount with other companies
DiscretionarySpending,
PostalCode,
PreviousLoans,Number of previous loans with Moneyme
MaritalStatus,
EmploymentSector,
Utilities,
EmploymentStatus,
Dependants,
EmploymentLength,
CreditEnquiries3,Credit enquiries in the past 3 months
CreditEnquiries1,Credit enquiries in the past 1 month
CreditEnquiries6,Credit enquiries in the past 6 months
EmploymentPayFrequency,Paycycle: Week/ Fortnight/ Month
CurrentBalance_all,"  '_all' means sum of current balance of available accounts: transaction ('_tran'), savings ('_sav'), homeloan ('_hom') & personal loan ('_pl)"
AvailableBalance_all,
OpeningBalance_all,
TotalCredits_all,
TotalDebits_all,
ClosingBalance_all,
DaysInNegative_all,sum of days in negative of different accounts
CurrentBalance_tran,
AvailableBalance_tran,
OpeningBalance_tran,
TotalCredits_tran,same as TotalCreditAmount_tran
TotalDebits_tran,same as TotalDebitAmount_tran
ClosingBalance_tran,
DaysInNegative_tran,number of days the transaction account was in negative balance
CurrentBalance_sav,
AvailableBalance_sav,
OpeningBalance_sav,
TotalCredits_sav,
TotalDebits_sav,
ClosingBalance_sav,
DaysInNegative_sav,
TransactionCount_all,
CreditCount_all,
DebitCount_all,
TotalCreditAmount_all,
TotalDebitAmount_all,
MaxCreditAmount_all,
MinCreditAmount_all,
MaxDebitAmount_all,
MinDebitAmount_all,
MaxBalance_all,
MinBalance_all,
TransactionCount_tran,number of transactions occurred in 'Transaction' account
CreditCount_tran,number of times a credit transaction occured in 'Transaction' account
DebitCount_tran,number of times a debit transaction occured in 'Transaction' account
TotalCreditAmount_tran,Total of all the amount credited to 'Transaction' account
TotalDebitAmount_tran,Total of all the amount debited to 'Transaction' account
MaxCreditAmount_tran,Maximum amount of credit transactions in 'Transaction' account
MinCreditAmount_tran,Minimum amount of credit transactions in 'Transaction' account
MaxDebitAmount_tran,Maximum amount of debit transactions in 'Transaction' account
MinDebitAmount_tran,Minimum amount of debit transactions in 'Transaction' account
MaxBalance_tran,
MinBalance_tran,
TransactionCount_sav,
CreditCount_sav,
DebitCount_sav,
TotalCreditAmount_sav,
TotalDebitAmount_sav,
MaxCreditAmount_sav,
MinCreditAmount_sav,
MaxDebitAmount_sav,
MinDebitAmount_sav,
MaxBalance_sav,
MinBalance_sav,
IsDefault,"1= Loan was bad, 0=Loan was good"